#ARG1 = Title
#ARG2 = input data file
#ARG3 = output png file
#ARG4 min val
#ARG5 max val

#set terminal pngcairo  transparent enhanced font "arial,10" fontscale 1.0 size 600, 400 
#set terminal postscript eps size 3.5,2.62 enhanced color font 'Helvetica,20' linewidth 2
set terminal cairolatex color
set output ARG3
unset clip points
set clip one
unset clip two
unset clip radial
set errorbars front 1.000000 
set border 31 front lt black linewidth 1.000 dashtype solid
set zdata 
set ydata 
set xdata 
set y2data 
set x2data 
set boxwidth
set boxdepth 0
set style fill empty border
set style rectangle back fc bgnd fillstyle   solid 1.00 border lt -1
set style circle radius graph 0.02 
set style ellipse size graph 0.05, 0.03 angle 0 units xy
set dgrid3d 10,10, 1
set dummy x, y
set format x "% h" 
set format y "% h" 
set format x2 "% h" 
set format y2 "% h" 
set format z "% h" 
set format cb "% h" 
set format r "% h" 
set ttics format "% h"
set timefmt "%d/%m/%y,%H:%M"
set angles radians
set tics back
unset grid
unset raxis
set theta counterclockwise right
set style parallel front  lt black linewidth 2.000 dashtype solid
set key notitle
set key fixed right top vertical Right noreverse enhanced autotitle nobox
set key noinvert samplen 4 spacing 1 width 0 height 0 
set key maxcolumns 0 maxrows 0
set key noopaque
unset label
unset arrow
unset style line
unset style arrow
set style histogram clustered gap 2 title textcolor lt -1
unset object
unset walls
set style textbox  transparent margins  1.0,  1.0 border  lt -1 linewidth  1.0
set offsets 0, 0, 0, 0
set pointsize 1
set pointintervalbox 1
#set encoding default
unset polar
unset parametric
unset spiderplot
unset decimalsign
unset micro
unset minussign
set view map scale 1
set rgbmax 255
set samples 100, 100
set isosamples 10, 10
set surface 
unset contour
set cntrlabel  format '%8.3g' font '' start 5 interval 20
set mapping cartesian
set datafile missing '?'
set datafile separator ","
set datafile nocolumnheaders
unset hidden3d
set cntrparam order 4
set cntrparam linear
set cntrparam levels 5
set cntrparam levels auto
set cntrparam firstlinetype 0 unsorted
set cntrparam points 5
set size ratio 0 1,1
set origin 0,0
set style data points
set style function lines
unset xzeroaxis
unset yzeroaxis
unset zzeroaxis
unset x2zeroaxis
unset y2zeroaxis
set xyplane relative 0.5
set tics scale  1, 0.5, 1, 1, 1
set mxtics default
set mytics default
set mztics default
set mx2tics default
set my2tics default
set mcbtics default
set mrtics default
set nomttics
set xtics border in scale 1,0.5 mirror norotate  autojustify
set xtics  norangelimit autofreq 
set ytics border in scale 1,0.5 mirror norotate  autojustify
set ytics  norangelimit autofreq 
set ztics border in scale 1,0.5 nomirror norotate  autojustify
set ztics  norangelimit autofreq 
unset x2tics
unset y2tics
set cbtics border in scale 1,0.5 mirror norotate  autojustify
set cbtics  norangelimit autofreq 
set rtics axis in scale 1,0.5 nomirror norotate  autojustify
set rtics  norangelimit autofreq 
unset ttics
#set title ARG1
set title ""
set title  font "" textcolor lt -1 norotate
set timestamp bottom 
set timestamp "" 
set timestamp  font "" textcolor lt -1 norotate
set trange [ * : * ] noreverse nowriteback noextend
set urange [ * : * ] noreverse nowriteback noextend
set vrange [ * : * ] noreverse nowriteback noextend
set xlabel "$t_1$" 
set xlabel  font "" textcolor lt -1 norotate
set x2label "" 
set x2label  font "" textcolor lt -1 norotate
set xrange [ * : * ] noreverse writeback noextend
set x2range [ * : * ] noreverse writeback noextend
set ylabel "$t_2$" 
set ylabel  font "" textcolor lt -1 rotate
set y2label "" 
set y2label  font "" textcolor lt -1 rotate
set yrange [ * : * ] noreverse writeback noextend
set y2range [ * : * ] noreverse writeback noextend
set zlabel "" 
set zlabel  font "" textcolor lt -1 norotate
set zrange [ * : * ] noreverse writeback noextend
set cblabel "$fai$ measure" 
set cblabel  font "" textcolor lt -1 rotate

if (ARG4 != ARG5) {
    set cbrange [ ARG4 : ARG5 ] noreverse writeback noextend
}
else {
    set cbrange [ * : * ] noreverse writeback noextend
}
set rlabel "" 
set rlabel  font "" textcolor lt -1 norotate
set rrange [ * : * ] noreverse writeback noextend
unset logscale
unset jitter
set zero 1e-08
set lmargin  -1
set bmargin  -1
set rmargin  -1
set tmargin  -1
set locale "C"
set pm3d explicit at s
set pm3d scansautomatic
set pm3d interpolate 1,1 flush begin noftriangles noborder corners2color mean
set pm3d clip z 
set pm3d nolighting
set palette positive nops_allcF maxcolors 0 gamma 1.5 color model RGB 
set palette rgbformulae 7, 5, 15
set colorbox default
set colorbox vertical origin screen 0.9, 0.2 size screen 0.05, 0.6 front  noinvert bdefault
set style boxplot candles range  1.50 outliers pt 7 separation 1 labels auto unsorted
set loadpath 
set fontpath
set psdir
set fit brief errorvariables nocovariancevariables errorscaling prescale nowrap v5
GNUTERM = "x11"
VoxelDistance = 9.00500479207635e-308
plot ARG2 matrix with image ti ''